14. Describing data – R for Psychological Science
…
Out of every hundred people,
 those who always know better:
 fifty-two.
 
 Unsure of every step:
 almost all the rest.
 
       - Wislawa Szymborska, A Word on Statistics (translated from the Polish by Joanna Trzeciak)

In this section I’m going to discuss a few methods for computing different kinds of descriptive statistics in R. I won’t talk about data visualisation at all until the next section. In the prelude to data section I referred to the AFL data set that contains some information about every game played in the Australian Rules Football (AFL) league between 1987 and 2010, available in the afl.csv file. As usual, I have tidyverse loaded, so I’ll use readr::read_csv1 to import the data:

afl <- read_csv("./data/afl.csv")
afl

# A tibble: 4,296 × 12
   home_team     away_team home_score away_score  year round weekday   day month
   <chr>         <chr>          <dbl>      <dbl> <dbl> <dbl> <chr>   <dbl> <dbl>
 1 North Melbou… Brisbane         104        137  1987     1 Fri        27     3
 2 Western Bull… Essendon          62        121  1987     1 Sat        28     3
 3 Carlton       Hawthorn         104        149  1987     1 Sat        28     3
 4 Collingwood   Sydney            74        165  1987     1 Sat        28     3
 5 Melbourne     Fitzroy          128         89  1987     1 Sat        28     3
 6 St Kilda      Geelong          101        102  1987     1 Sat        28     3
 7 West Coast    Richmond         133        119  1987     1 Sun        29     3
 8 North Melbou… Melbourne         92         59  1987     2 Fri         3     4
 9 Geelong       Brisbane         131        150  1987     2 Sat         4     4
10 Collingwood   Carlton          107        114  1987     2 Sat         4     4
# ℹ 4,286 more rows
# ℹ 3 more variables: game_type <chr>, venue <chr>, attendance <dbl>
…
`summarise()` has regrouped the output.
ℹ Summaries were computed grouped by home_team and away_team.
ℹ Output is grouped by home_team.
ℹ Use `summarise(.groups = "drop_last")` to silence this message.
ℹ Use `summarise(.by = c(home_team, away_team))` for per-operation grouping
  (`?dplyr::dplyr_by`) instead.

The call to group_by() creates a “grouped data frame” which doesn’t look any different to the original other than that R now knows what grouping you want! When this grouped data is piped to summarise(), R knows that it is supposed to provide results broken down by the relevant grouping variables. So this is what the command above returns:

match_popularity

# A tibble: 270 × 3
# Groups:   home_team [17]
   home_team away_team       attend
   <chr>     <chr>            <dbl>
 1 Adelaide  Brisbane        38638.
 2 Adelaide  Carlton         42256.
 3 Adelaide  Collingwood     42205.
 4 Adelaide  Essendon        42570.
 5 Adelaide  Fitzroy         36204 
 6 Adelaide  Fremantle       40030.
 7 Adelaide  Geelong         42588.
 8 Adelaide  Hawthorn        41932.
 9 Adelaide  Melbourne       40050.
10 Adelaide  North Melbourne 42553.
# ℹ 260 more rows

In the first row, we see that the average attendance at a match between Adelaide and Brisbane over this period was about 39,000 people.

5 Arranging data

The output from our previous command organised the output alphabetically, which is less than ideal. It is usually more helpful to sort the data set in a more meaningful way using dplyr::arrange. To sort the match_popularity table in order of increasing attendance, we do this:

match_popularity %>%
  arrange(attend)

# A tibble: 270 × 3
# Groups:   home_team [17]
   home_team away_team       attend
   <chr>     <chr>            <dbl>
 1 Fitzroy   Fremantle        6322 
 2 Fitzroy   Brisbane         6787.
 3 Fitzroy   West Coast       7139 
 4 Fitzroy   Adelaide         8491 
 5 Brisbane  Fitzroy          9426.
 6 Fitzroy   Sydney           9681.
 7 Fitzroy   North Melbourne 10352 
 8 Sydney    Fitzroy         10710.
 9 Fitzroy   Melbourne       10890 
10 Fitzroy   Geelong         10951.
# ℹ 260 more rows

Clearly, Fitzroy was not a popular team, which would be the reason they were merged with Brisbane in 1996. To sort in descending order we can do this:

match_popularity %>%
  arrange(-attend)

# A tibble: 270 × 3
# Groups:   home_team [17]
   home_team   away_team   attend
   <chr>       <chr>        <dbl>
 1 Collingwood Essendon    73243.
 2 Collingwood Carlton     68955.
 3 Essendon    Collingwood 66756 
 4 Carlton     Collingwood 64162.
 5 Melbourne   Collingwood 60705.
 6 Essendon    Carlton     58752.
 7 Carlton     Essendon    55901.
 8 Collingwood Geelong     55818.
 9 Richmond    Collingwood 55218.
10 Richmond    Essendon    54450.
# ℹ 260 more rows
…
Well that was easy!

8 New variables with mutate

Very often the raw data you are given doesn’t contain the actual quantity of iteres, and you might need to compute it from the other variables. The mutate function allows you to create new variables within a data frame:

afl %>%
  mutate(margin = abs(home_score - away_score)) %>%
  select(home_score, away_score, margin)

# A tibble: 4,296 × 3
   home_score away_score margin
        <dbl>      <dbl>  <dbl>
 1        104        137     33
 2         62        121     59
 3        104        149     45
 4         74        165     91
 5        128         89     39
 6        101        102      1
 7        133        119     14
 8         92         59     33
 9        131        150     19
10        107        114      7
# ℹ 4,286 more rows
…
