16. Manipulating data – R for Psychological Science
…
Using filter and select to extract subsets of a data frame

Using mutate to create or alter columns in a data frame

Using arrange to sort a data frame

1 An illustrative problem

In the data visualisation we used a data set looking at inductive reasoning stored in the frames_ex2.csv file. Here it is again:

frames <- read_csv("./data/frames_ex2.csv")
frames

# A tibble: 4,725 × 8
      id gender   age condition sample_size n_obs test_item response
   <dbl> <chr>  <dbl> <chr>     <chr>       <dbl>     <dbl>    <dbl>
 1     1 male      36 category  small           2         1        8
 2     1 male      36 category  small           2         2        7
 3     1 male      36 category  small           2         3        6
 4     1 male      36 category  small           2         4        6
 5     1 male      36 category  small           2         5        5
 6     1 male      36 category  small           2         6        6
 7     1 male      36 category  small           2         7        3
 8     1 male      36 category  medium          6         1        9
 9     1 male      36 category  medium          6         2        7
10     1 male      36 category  medium          6         3        5
# ℹ 4,715 more rows

In this file the data are stored in long form, in which there is one row for every trial in the experiment and thus the data from each participant are spread across several rows. I stored the data in that format because it was handy for drawing pictures, but as it happen this isn’t how the data set was stored when I extracted it from the OSF repository in which I’d deposited it only a few months earlier! Here’s what it looked like when I found it:

wide_frames <- read_csv("./data/frames_ex2_wide.csv")
wide_frames

# A tibble: 225 × 25
      ID Gender   Age Sampling `SS2-R1` `SS2-R2` `SS2-R3` `SS2-R4` `SS2-R5`
   <dbl> <chr>  <dbl> <chr>       <dbl>    <dbl>    <dbl>    <dbl>    <dbl>
 1     1 male      36 category        8        7        6        6        5
 2     2 male      46 category        7        5        5        5        5
 3     3 female    33 property        8        7        7        4        4
 4     4 female    71 property        6        7        6        6        3
 5     5 female    23 property        9        9        9        9        9
 6     6 female    31 category        7        7        7        8        8
 7     7 male      23 property        6        7        5        4        3
 8     8 female    31 property        4        4        2        4        4
 9     9 female    37 category        9        9        7        5        0
10    10 female    46 category        8        6        4        4        4
# ℹ 215 more rows
# ℹ 16 more variables: `SS2-R6` <dbl>, `SS2-R7` <dbl>, `SS6-R1` <dbl>,
#   `SS6-R2` <dbl>, `SS6-R3` <dbl>, `SS6-R4` <dbl>, `SS6-R5` <dbl>,
#   `SS6-R6` <dbl>, `SS6-R7` <dbl>, `SS12-R1` <dbl>, `SS12-R2` <dbl>,
#   `SS12-R3` <dbl>, `SS12-R4` <dbl>, `SS12-R5` <dbl>, `SS12-R6` <dbl>,
#   `SS12-R7` <dbl>

In this file, the data are stored in wide form. The data frame contains only one row per person, and each judgment they make is stored as a separate variable. Wide and long form data are useful for a number of purposes. How do we switch between them, “reshaping” the data to the form we need?

Once upon a time this used to be a difficult task, so much so that I wrote my own (not very good) functions that would solve this problem in a way that didn’t expose my students to some of the more frustrating aspects of data manipulation. Thankfully, this has changed. There is a little package distributed with the tidyverse called tidyr and it is remarkably effective at solving a range of reshaping problems in a (fairly) intuitive way.

2 Reshaping a data frame

long_frames <- wide_frames %>% 
  gather(key = "query", value="response",
         "SS2-R1", "SS2-R2","SS2-R3","SS2-R4","SS2-R5","SS2-R6","SS2-R7",
         "SS6-R1","SS6-R2","SS6-R3","SS6-R4","SS6-R5","SS6-R6","SS6-R7", 
         "SS12-R1","SS12-R2","SS12-R3","SS12-R4","SS12-R5","SS12-R6","SS12-R7")
long_frames

# A tibble: 4,725 × 6
      ID Gender   Age Sampling query  response
   <dbl> <chr>  <dbl> <chr>    <chr>     <dbl>
 1     1 male      36 category SS2-R1        8
 2     2 male      46 category SS2-R1        7
 3     3 female    33 property SS2-R1        8
 4     4 female    71 property SS2-R1        6
 5     5 female    23 property SS2-R1        9
 6     6 female    31 category SS2-R1        7
 7     7 male      23 property SS2-R1        6
 8     8 female    31 property SS2-R1        4
 9     9 female    37 category SS2-R1        9
10    10 female    46 category SS2-R1        8
# ℹ 4,715 more rows

To go back the other way, we could do this:

long_frames %>% spread(key = "query", value = "response")

# A tibble: 225 × 25
      ID Gender   Age Sampling `SS12-R1` `SS12-R2` `SS12-R3` `SS12-R4` `SS12-R5`
   <dbl> <chr>  <dbl> <chr>        <dbl>     <dbl>     <dbl>     <dbl>     <dbl>
 1     1 male      36 category         8         7         6         6         4
 2     2 male      46 category         9         9         8         8         8
 3     3 female    33 property         8         9         9         2         1
 4     4 female    71 property         9         8         3         2         1
 5     5 female    23 property         9         9         9         9         9
 6     6 female    31 category         9         9         8         8         7
 7     7 male      23 property         8         7         6         2         1
 8     8 female    31 property         8         8         7         7         1
 9     9 female    37 category         9         8         1         0         0
10    10 female    46 category         9         9         8         6         9
# ℹ 215 more rows
# ℹ 16 more variables: `SS12-R6` <dbl>, `SS12-R7` <dbl>, `SS2-R1` <dbl>,
#   `SS2-R2` <dbl>, `SS2-R3` <dbl>, `SS2-R4` <dbl>, `SS2-R5` <dbl>,
#   `SS2-R6` <dbl>, `SS2-R7` <dbl>, `SS6-R1` <dbl>, `SS6-R2` <dbl>,
#   `SS6-R3` <dbl>, `SS6-R4` <dbl>, `SS6-R5` <dbl>, `SS6-R6` <dbl>,
#   `SS6-R7` <dbl>

3 Splitting a variable

The long_frames data frame we created is close to what we need, but the query variable isn’t quite right. A value of "SS2-R1" corresponds to a trial on which the sample size was 2 and the test item was 1. This should properly be two variables, one specifying the sample_size and the other specifying the value of the test_item.

long_frames %>% 
  separate(
    col = query, 
    into = c("sample_size","test_item"), 
    sep = "-R"
  )

# A tibble: 4,725 × 7
      ID Gender   Age Sampling sample_size test_item response
   <dbl> <chr>  <dbl> <chr>    <chr>       <chr>        <dbl>
 1     1 male      36 category SS2         1                8
 2     2 male      46 category SS2         1                7
 3     3 female    33 property SS2         1                8
 4     4 female    71 property SS2         1                6
 5     5 female    23 property SS2         1                9
 6     6 female    31 category SS2         1                7
 7     7 male      23 property SS2         1                6
 8     8 female    31 property SS2         1                4
 9     9 female    37 category SS2         1                9
10    10 female    46 category SS2         1                8
# ℹ 4,715 more rows

Getting closer. Note that there is a unite() function that reverses this operation, so if you ever need to collapse multiple columns into a single variable that would be the way to do it. It’s also worth noting that the two new variables aren’t quite in the format we want them to be. For instance, the test_item variable should be numeric rather than character, so lets mutate that and store the results:

long_frames <- long_frames %>% 
  separate(
    col = query, 
    into = c("sample_size","test_item"), 
    sep = "-R"
  ) %>%
  mutate(test_item = as.numeric(test_item))
long_frames

# A tibble: 4,725 × 7
      ID Gender   Age Sampling sample_size test_item response
   <dbl> <chr>  <dbl> <chr>    <chr>           <dbl>    <dbl>
 1     1 male      36 category SS2                 1        8
 2     2 male      46 category SS2                 1        7
 3     3 female    33 property SS2                 1        8
 4     4 female    71 property SS2                 1        6
 5     5 female    23 property SS2                 1        9
 6     6 female    31 category SS2                 1        7
 7     7 male      23 property SS2                 1        6
 8     8 female    31 property SS2                 1        4
 9     9 female    37 category SS2                 1        9
10    10 female    46 category SS2                 1        8
# ℹ 4,715 more rows
…
4.1 Using recode()

What should we do with the sample_size variable?

long_frames <- long_frames %>%
  mutate(sample_size = dplyr::recode(
    sample_size, 
    "SS2" = "small", 
    "SS6" = "medium", 
    "SS12" = "large")
  )
long_frames

# A tibble: 4,725 × 7
      ID Gender   Age Sampling sample_size test_item response
   <dbl> <chr>  <dbl> <chr>    <chr>           <dbl>    <dbl>
 1     1 male      36 category small               1        8
 2     2 male      46 category small               1        7
 3     3 female    33 property small               1        8
 4     4 female    71 property small               1        6
 5     5 female    23 property small               1        9
 6     6 female    31 category small               1        7
 7     7 male      23 property small               1        6
 8     8 female    31 property small               1        4
 9     9 female    37 category small               1        9
10    10 female    46 category small               1        8
# ℹ 4,715 more rows

4.2 Using case_when()

An alternative method is to use case_when().

long_frames <- long_frames %>%
  mutate(n_obs = case_when(
    sample_size == "small" ~ 2,
    sample_size == "medium" ~ 6,
    sample_size == "large" ~ 12
  ))
long_frames

# A tibble: 4,725 × 8
      ID Gender   Age Sampling sample_size test_item response n_obs
   <dbl> <chr>  <dbl> <chr>    <chr>           <dbl>    <dbl> <dbl>
 1     1 male      36 category small               1        8     2
 2     2 male      46 category small               1        7     2
 3     3 female    33 property small               1        8     2
 4     4 female    71 property small               1        6     2
 5     5 female    23 property small               1        9     2
 6     6 female    31 category small               1        7     2
 7     7 male      23 property small               1        6     2
 8     8 female    31 property small               1        4     2
 9     9 female    37 category small               1        9     2
10    10 female    46 category small               1        8     2
# ℹ 4,715 more rows
…
