12. Prelude to data – R for Psychological Science
…
12. Prelude to data

When teaching statistics and data analysis, there is a school of thought that argues that the student should be introduced to actual data as quickly as possible. In one sense I’ve broken that rule rather substantially. The entirety the core toolkit section went by without any real data, much less any data analysis. In my defence, data analysis was never the intended goal of that section. My hope with that section was to teach enough programming concepts that you’d be able to implement a psychological model in R, as we did with the Rescorla-Wagner model previously.

In this section I’m going to shift the focus to data analysis. I won’t talk much about statistical inference about data (that will come in a later section) though. Instead we’ll cover topics like tidying data, summarising data and visualising data. As the focus is now explicitly on data, I’ll now work with real data.

1 Attendance at the football

The data I’ll look at first is one that I put together as part of the Learning Statistics with R book. It consists of information about every game of Australian Rules Football (AFL) played between 1987 and 2010. The data are available in the afl.csv file. Let’s load the data set and take a look at it:

library(tidyverse)
afl <- read_csv("./data/afl.csv")
afl

# A tibble: 4,296 × 12
   home_team     away_team home_score away_score  year round weekday   day month
   <chr>         <chr>          <dbl>      <dbl> <dbl> <dbl> <chr>   <dbl> <dbl>
 1 North Melbou… Brisbane         104        137  1987     1 Fri        27     3
 2 Western Bull… Essendon          62        121  1987     1 Sat        28     3
 3 Carlton       Hawthorn         104        149  1987     1 Sat        28     3
 4 Collingwood   Sydney            74        165  1987     1 Sat        28     3
 5 Melbourne     Fitzroy          128         89  1987     1 Sat        28     3
 6 St Kilda      Geelong          101        102  1987     1 Sat        28     3
 7 West Coast    Richmond         133        119  1987     1 Sun        29     3
 8 North Melbou… Melbourne         92         59  1987     2 Fri         3     4
 9 Geelong       Brisbane         131        150  1987     2 Sat         4     4
10 Collingwood   Carlton          107        114  1987     2 Sat         4     4
# ℹ 4,286 more rows
# ℹ 3 more variables: game_type <chr>, venue <chr>, attendance <dbl>

For the moment let’s not worry too much about what this code is doing or what the output means. The gist of the output is pretty clear. We have information about 4296 football vgames. For each game we have recorded 12 variables: the names of the home and away team, the number of points scored by each team, information about when the game was played, the venue where it was played, the official attendance statistics, and whether it was a regular home-and-away game or part of the finals series.

That’s nice, but currently our data takes the form of a table with 4296 rows and 12 columns, and I have no idea what any of it means. How do I extract meaningful information out of this data set? Let’s say my goal is to investigate how the average attendance at AFL games has changed over the years, and I’d like to look at regular season games separate from finals. To do so, I first summarise the AFL data in terms of the relevant variables:

attendance <- afl %>% 
  group_by(year, game_type) %>% 
  summarise(attendance = mean(attendance)) 
attendance

# A tibble: 48 × 3
# Groups:   year [24]
    year game_type attendance
   <dbl> <chr>          <dbl>
 1  1987 finals        71510.
 2  1987 regular       19120.
 3  1988 finals        72700.
 4  1988 regular       20082.
 5  1989 finals        72783.
 6  1989 regular       20423.
 7  1990 finals        67970 
 8  1990 regular       23296.
 9  1991 finals        54530.
10  1991 regular       23013.
# ℹ 38 more rows
…
