17. Working with text – R for Psychological Science
…
cat

escaping

2 Getting started

The data come from Experiment 1 in a very cool paper by Simon Kirby, Hannah Cornish, and Kenny Smith.

chains <- read_csv("./data/kirbyetal2008_exp1_wide.csv")
chain_3 <- chains %>% 
  filter(version == "chain3") %>%
  select(color,shape,motion,starts_with("name")) 
print(chain_3)

# A tibble: 27 × 14
   color shape    motion name_0 name_1 name_2 name_3 name_4 name_5 name_6 name_7
   <chr> <chr>    <chr>  <chr>  <chr>  <chr>  <chr>  <chr>  <chr>  <chr>  <chr> 
 1 black circle   bounce kinim… kimei  hepini tuge   tupim  tupim  minku  miniku
 2 blue  circle   bounce wikuki miwn   miniku tupim  tupim  tupim  miniku miniku
 3 red   circle   bounce kikumi mihen… hepini tupim  tupim  tupim  miniku miniku
 4 black square   bounce miwin… pemini nige   miniku mihunu mihunu miniku miniku
 5 blue  square   bounce pinipi kupini tuge   tuge   tupim  tupim  tupin  miniku
 6 red   square   bounce kihem… pon    mihenu mihunu miniku tupim  tupim  tupim 
 7 black triangle bounce miwimi poi    poi    poi    poi    miniku miniku miniku
 8 blue  triangle bounce nipi   mhip   mpo    tuge   miniku tupim  tupin  tupin 
 9 red   triangle bounce wige   kuwpi  tupim  miniku miniku miniku tupin  miniku
10 black circle   horiz… nihepi mip    nige   tuge   tuge   tuge   tuge   tuge  
# ℹ 17 more rows
# ℹ 3 more variables: name_8 <chr>, name_9 <chr>, name_10 <chr>
…
