…
Out of every hundred people,
 those who always know better:
 fifty-two.
 
 Unsure of every step:
 almost all the rest.
 
       - Wislawa Szymborska, A Word on Statistics (translated from the Polish by Joanna Trzeciak)

In this section I’m going to discuss a few methods for computing different kinds of descriptive statistics in R. I won’t talk about data visualisation at all until the next section. In the prelude to data section I referred to the AFL data set that contains some information about every game played in the Australian Rules Football (AFL) league between 1987 and 2010, available in the afl.csv file. As usual, I have tidyverse loaded, so I’ll use readr::read_csv1 to import the data:

afl <- read_csv("./data/afl.csv")
afl

## # A tibble: 4,296 x 12
##    home_team away_team home_score away_score  year round weekday   day
##    <chr>     <chr>          <int>      <int> <int> <int> <chr>   <int>
##  1 North Me… Brisbane         104        137  1987     1 Fri        27
##  2 Western … Essendon          62        121  1987     1 Sat        28
##  3 Carlton   Hawthorn         104        149  1987     1 Sat        28
##  4 Collingw… Sydney            74        165  1987     1 Sat        28
##  5 Melbourne Fitzroy          128         89  1987     1 Sat        28
##  6 St Kilda  Geelong          101        102  1987     1 Sat        28
##  7 West Coa… Richmond         133        119  1987     1 Sun        29
##  8 North Me… Melbourne         92         59  1987     2 Fri         3
##  9 Geelong   Brisbane         131        150  1987     2 Sat         4
## 10 Collingw… Carlton          107        114  1987     2 Sat         4
## # ... with 4,286 more rows, and 4 more variables: month <int>,
## #   game_type <chr>, venue <chr>, attendance <int>
…
14.4 Summarising by group

Back in the dark pre-tidyverse era it was surprisingly difficult to compute descriptive statistics separately for each group. There is a function in base R called aggregate() that lets you do this, but it’s a little cumbersome. The way I usually do this now is with the dplyr functions group_by() and summarise(). Let’s suppose I want to compute the mean attendance at AFL games broken down by who was playing. Conceptually, what I want to do is “group by” two variables namely home_team and away_team, and “then” for all unique combinations of those variables “summarise” the data by computing the mean attendance. That sounds like a job for %>%…

match_popularity <- afl %>%
  group_by(home_team, away_team) %>%
  summarise(attend = mean(attendance))

The call to group_by() creates a “grouped data frame” which doesn’t look any different to the original other than that R now knows what grouping you want! When this grouped data is piped to summarise(), R knows that it is supposed to provide results broken down by the relevant grouping variables. So this is what the command above returns:

match_popularity

## # A tibble: 270 x 3
## # Groups:   home_team [?]
##    home_team away_team       attend
##    <chr>     <chr>            <dbl>
##  1 Adelaide  Brisbane        38638.
##  2 Adelaide  Carlton         42256.
##  3 Adelaide  Collingwood     42205.
##  4 Adelaide  Essendon        42570.
##  5 Adelaide  Fitzroy         36204 
##  6 Adelaide  Fremantle       40030.
##  7 Adelaide  Geelong         42588.
##  8 Adelaide  Hawthorn        41932.
##  9 Adelaide  Melbourne       40050.
## 10 Adelaide  North Melbourne 42553.
## # ... with 260 more rows

In the first row, we see that the average attendance at a match between Adelaide and Brisbane over this period was about 39,000 people.

14.5 Arranging data

The output from our previous command organised the output alphabetically, which is less than ideal. It is usually more helpful to sort the data set in a more meaningful way using dplyr::arrange. To sort the match_popularity table in order of increasing attendance, we do this:

match_popularity %>%
  arrange(attend)

## # A tibble: 270 x 3
## # Groups:   home_team [17]
##    home_team away_team       attend
##    <chr>     <chr>            <dbl>
##  1 Fitzroy   Fremantle        6322 
##  2 Fitzroy   Brisbane         6787.
##  3 Fitzroy   West Coast       7139 
##  4 Fitzroy   Adelaide         8491 
##  5 Brisbane  Fitzroy          9426.
##  6 Fitzroy   Sydney           9681.
##  7 Fitzroy   North Melbourne 10352 
##  8 Sydney    Fitzroy         10710.
##  9 Fitzroy   Melbourne       10890 
## 10 Fitzroy   Geelong         10951.
## # ... with 260 more rows

Clearly, Fitzroy was not a popular team, which would be the reason they were merged with Brisbane in 1996. To sort in descending order we can do this:

match_popularity %>%
  arrange(-attend)

## # A tibble: 270 x 3
## # Groups:   home_team [17]
##    home_team   away_team   attend
##    <chr>       <chr>        <dbl>
##  1 Collingwood Essendon    73243.
##  2 Collingwood Carlton     68955.
##  3 Essendon    Collingwood 66756 
##  4 Carlton     Collingwood 64162.
##  5 Melbourne   Collingwood 60705.
##  6 Essendon    Carlton     58752.
##  7 Carlton     Essendon    55901.
##  8 Collingwood Geelong     55818.
##  9 Richmond    Collingwood 55218.
## 10 Richmond    Essendon    54450.
## # ... with 260 more rows
…
Well that was easy!

14.8 New variables with mutate

Very often the raw data you are given doesn’t contain the actual quantity of iteres, and you might need to compute it from the other variables. The mutate function allows you to create new variables within a data frame:

afl %>%
  mutate(margin = abs(home_score - away_score)) %>%
  select(home_score, away_score, margin)

## # A tibble: 4,296 x 3
##    home_score away_score margin
##         <int>      <int>  <int>
##  1        104        137     33
##  2         62        121     59
##  3        104        149     45
##  4         74        165     91
##  5        128         89     39
##  6        101        102      1
##  7        133        119     14
##  8         92         59     33
##  9        131        150     19
## 10        107        114      7
## # ... with 4,286 more rows
…
