…
cat

escaping

17.2 Getting started

The data come from Experiment 1 in a very cool paper by Simon Kirby, Hannah Cornish, and Kenny Smith.

chains <- read_csv("./data/kirbyetal2008_exp1_wide.csv")
chain_3 <- chains %>% 
  filter(version == "chain3") %>%
  select(color,shape,motion,starts_with("name")) 
print(chain_3)

## # A tibble: 27 x 14
##    color shape motion name_0 name_1 name_2 name_3 name_4 name_5 name_6
##    <chr> <chr> <chr>  <chr>  <chr>  <chr>  <chr>  <chr>  <chr>  <chr> 
##  1 black circ… bounce kinim… kimei  hepini tuge   tupim  tupim  minku 
##  2 blue  circ… bounce wikuki miwn   miniku tupim  tupim  tupim  miniku
##  3 red   circ… bounce kikumi mihen… hepini tupim  tupim  tupim  miniku
##  4 black squa… bounce miwin… pemini nige   miniku mihunu mihunu miniku
##  5 blue  squa… bounce pinipi kupini tuge   tuge   tupim  tupim  tupin 
##  6 red   squa… bounce kihem… pon    mihenu mihunu miniku tupim  tupim 
##  7 black tria… bounce miwimi poi    poi    poi    poi    miniku miniku
##  8 blue  tria… bounce nipi   mhip   mpo    tuge   miniku tupim  tupin 
##  9 red   tria… bounce wige   kuwpi  tupim  miniku miniku miniku tupin 
## 10 black circ… horiz… nihepi mip    nige   tuge   tuge   tuge   tuge  
## # ... with 17 more rows, and 4 more variables: name_7 <chr>, name_8 <chr>,
## #   name_9 <chr>, name_10 <chr>
…
