working-with-text.utf8
…
cat

escaping

17.2 Getting started

The data come from Experiment 1 in a very cool paper by Simon Kirby, Hannah Cornish, and Kenny Smith.

chains <- read_csv("./data/kirbyetal2008_exp1_wide.csv")
chain_3 <- chains %>% 
  filter(version == "chain3") %>%
  select(color,shape,motion,starts_with("name")) 
print(chain_3)

## # A tibble: 27 x 14
##    color shape  motion name_0 name_1 name_2 name_3 name_4 name_5
##    <chr> <chr>  <chr>  <chr>  <chr>  <chr>  <chr>  <chr>  <chr> 
##  1 black circle bounce kinim… kimei  hepini tuge   tupim  tupim 
##  2 blue  circle bounce wikuki miwn   miniku tupim  tupim  tupim 
##  3 red   circle bounce kikumi mihen… hepini tupim  tupim  tupim 
##  4 black square bounce miwin… pemini nige   miniku mihunu mihunu
##  5 blue  square bounce pinipi kupini tuge   tuge   tupim  tupim 
##  6 red   square bounce kihem… pon    mihenu mihunu miniku tupim 
##  7 black trian… bounce miwimi poi    poi    poi    poi    miniku
##  8 blue  trian… bounce nipi   mhip   mpo    tuge   miniku tupim 
##  9 red   trian… bounce wige   kuwpi  tupim  miniku miniku miniku
## 10 black circle horiz… nihepi mip    nige   tuge   tuge   tuge  
## # … with 17 more rows, and 5 more variables: name_6 <chr>,
## #   name_7 <chr>, name_8 <chr>, name_9 <chr>, name_10 <chr>
…
